\relax 
\providecommand\hyper@newdestlabel[2]{}
\providecommand\HyperFirstAtBeginDocument{\AtBeginDocument}
\HyperFirstAtBeginDocument{\ifx\hyper@anchor\@undefined
\global\let\oldcontentsline\contentsline
\gdef\contentsline#1#2#3#4{\oldcontentsline{#1}{#2}{#3}}
\global\let\oldnewlabel\newlabel
\gdef\newlabel#1#2{\newlabelxx{#1}#2}
\gdef\newlabelxx#1#2#3#4#5#6{\oldnewlabel{#1}{{#2}{#3}}}
\AtEndDocument{\ifx\hyper@anchor\@undefined
\let\contentsline\oldcontentsline
\let\newlabel\oldnewlabel
\fi}
\fi}
\global\let\hyper@last\relax 
\gdef\HyperFirstAtBeginDocument#1{#1}
\providecommand\HyField@AuxAddToFields[1]{}
\providecommand\HyField@AuxAddToCoFields[2]{}
\select@language{english}
\@writefile{toc}{\select@language{english}}
\@writefile{lof}{\select@language{english}}
\@writefile{lot}{\select@language{english}}
\@writefile{toc}{\contentsline {chapter}{Preface}{iii}{section*.2}}
\newlabel{chap:preface}{{}{iii}{Preface}{section*.2}{}}
\@writefile{toc}{\contentsline {chapter}{Contents}{iv}{section*.4}}
\@writefile{toc}{\contentsline {chapter}{List of Figures}{v}{section*.6}}
\@writefile{toc}{\contentsline {chapter}{List of Tables}{vi}{section*.8}}
\citation{GUCMaster}
\@writefile{toc}{\contentsline {chapter}{\numberline {1}Introduction}{1}{section*.9}}
\newlabel{chap:introduction}{{1}{1}{Introduction}{section*.9}{}}
\citation{GUCMaster}
\@writefile{toc}{\contentsline {chapter}{\numberline {2}Packages}{2}{section*.10}}
\newlabel{chap:packages}{{2}{2}{Packages}{section*.10}{}}
\@writefile{toc}{\contentsline {section}{\numberline {2.1}Packages Used by gucthesis}{2}{section.2.1}}
\newlabel{sec:packages}{{2.1}{2}{Packages Used by gucthesis}{section.2.1}{}}
\@writefile{toc}{\contentsline {section}{\numberline {2.2}Other Relevant Packages}{2}{section.2.2}}
\newlabel{sec:otherpackages}{{2.2}{2}{Other Relevant Packages}{section.2.2}{}}
\@writefile{toc}{\contentsline {chapter}{\numberline {3}Structural Elements}{3}{section*.11}}
\newlabel{chap:structural}{{3}{3}{Structural Elements}{section*.11}{}}
\@writefile{toc}{\contentsline {section}{\numberline {3.1}Page Layout}{3}{section.3.1}}
\@writefile{toc}{\contentsline {section}{\numberline {3.2}Fonts}{3}{section.3.2}}
\@writefile{toc}{\contentsline {section}{\numberline {3.3}Sectioning Commands}{3}{section.3.3}}
\@writefile{toc}{\contentsline {subsection}{\numberline {3.3.1}The subsection}{3}{subsection.3.3.1}}
\@writefile{toc}{\contentsline {subsubsection}{The subsubsection}{3}{section*.12}}
\@writefile{toc}{\contentsline {paragraph}{The paragraph}{3}{section*.13}}
\@writefile{toc}{\contentsline {section}{\numberline {3.4}Floats (Figures and Tables)}{3}{section.3.4}}
\newlabel{sec:floats}{{3.4}{3}{Floats (Figures and Tables)}{section.3.4}{}}
\@writefile{lof}{\contentsline {figure}{\numberline {1}{\ignorespaces An example figure.}}{4}{figure.3.1}}
\newlabel{fig:example}{{1}{4}{An example figure}{figure.3.1}{}}
\@writefile{lot}{\contentsline {table}{\numberline {1}{\ignorespaces An example table.}}{4}{table.3.1}}
\newlabel{tab:example}{{1}{4}{An example table}{table.3.1}{}}
\@writefile{toc}{\contentsline {section}{\numberline {3.5}Quotes}{4}{section.3.5}}
\newlabel{sec:Quotes}{{3.5}{4}{Quotes}{section.3.5}{}}
\@writefile{toc}{\contentsline {section}{\numberline {3.6}Lists}{4}{section.3.6}}
\newlabel{sec:lists}{{3.6}{4}{Lists}{section.3.6}{}}
\citation{Askvall1985}
\citation{Card1983}
\citation{Lancaster1985}
\citation{Meldon1997}
\citation{HiG:Website}
\bibstyle{gucthesis}
\bibdata{BachelorExample}
\@writefile{toc}{\contentsline {section}{\numberline {3.7}Bibliographic References}{5}{section.3.7}}
\bibcite{GUCMaster}{1}
\bibcite{Askvall1985}{2}
\bibcite{Card1983}{3}
\bibcite{Lancaster1985}{4}
\bibcite{Meldon1997}{5}
\bibcite{HiG:Website}{6}
\@writefile{toc}{\contentsline {chapter}{Bibliography}{6}{section*.15}}
\@writefile{toc}{\contentsline {chapter}{\numberline {A}Meetings}{7}{section*.16}}
\newlabel{LastPage}{{}{7}{}{page.7}{}}
\xdef\lastpage@lastpage{7}
\xdef\lastpage@lastpageHy{7}
